dump.vcd
$version Generated by VerilatedVcd $end
$timescale 1s $end

 $scope module TOP $end
  $var wire  1 e! clk $end
  $var wire 32 l! cpu_inst [31:0] $end
  $var wire 32 k! cpu_pc [31:0] $end
  $var wire 32 h! mem_addr [31:0] $end
  $var wire 32 j! mem_data [31:0] $end
  $var wire  1 f! resetn $end
  $var wire  5 g! rf_addr [4:0] $end
  $var wire 32 i! rf_data [31:0] $end
  $scope module single_cycle_cpu $end
   $var wire 12 e alu_control [11:0] $end
   $var wire 32 c alu_operand1 [31:0] $end
   $var wire 32 d alu_operand2 [31:0] $end
   $var wire 32 f alu_result [31:0] $end
   $var wire  1 X beq_taken $end
   $var wire  1 Y bne_taken $end
   $var wire 32 Z br_target [31:0] $end
   $var wire  1 e! clk $end
   $var wire 32 l! cpu_inst [31:0] $end
   $var wire 32 k! cpu_pc [31:0] $end
   $var wire 32 f dm_addr [31:0] $end
   $var wire 32 g dm_rdata [31:0] $end
   $var wire 32 ^ dm_wdata [31:0] $end
   $var wire  4 n! dm_wen [3:0] $end
   $var wire  6 B funct [5:0] $end
   $var wire 16 C imm [15:0] $end
   $var wire 32 < inst [31:0] $end
   $var wire  1 P inst_ADDIU $end
   $var wire  1 G inst_ADDU $end
   $var wire  1 J inst_AND $end
   $var wire  1 Q inst_BEQ $end
   $var wire  1 R inst_BNE $end
   $var wire  1 V inst_J $end
   $var wire  1 U inst_LUI $end
   $var wire  1 S inst_LW $end
   $var wire  1 K inst_NOR $end
   $var wire  1 L inst_OR $end
   $var wire  1 N inst_SLL $end
   $var wire  1 I inst_SLT $end
   $var wire  1 O inst_SRL $end
   $var wire  1 H inst_SUBU $end
   $var wire  1 T inst_SW $end
   $var wire  1 M inst_XOR $end
   $var wire  1 _ inst_add $end
   $var wire 32 k! inst_addr [31:0] $end
   $var wire  1 J inst_and $end
   $var wire  1 b inst_imm_sign $end
   $var wire  1 U inst_lui $end
   $var wire  1 K inst_nor $end
   $var wire  1 L inst_or $end
   $var wire  1 a inst_shf_sa $end
   $var wire  1 N inst_sll $end
   $var wire  1 I inst_slt $end
   $var wire  1 p! inst_sltu $end
   $var wire  1 p! inst_sra $end
   $var wire  1 O inst_srl $end
   $var wire  1 H inst_sub $end
   $var wire  1 i inst_wdest_rd $end
   $var wire  1 h inst_wdest_rt $end
   $var wire  1 M inst_xor $end
   $var wire  1 V j_taken $end
   $var wire 32 W j_target [31:0] $end
   $var wire  1 ; jbr_taken $end
   $var wire 32 : jbr_target [31:0] $end
   $var wire 32 h! mem_addr [31:0] $end
   $var wire 32 j! mem_data [31:0] $end
   $var wire 32 8 next_pc [31:0] $end
   $var wire 16 C offset [15:0] $end
   $var wire  6 = op [5:0] $end
   $var wire  1 E op_zero $end
   $var wire 32 7 pc [31:0] $end
   $var wire  5 @ rd [4:0] $end
   $var wire  1 f! resetn $end
   $var wire  5 g! rf_addr [4:0] $end
   $var wire 32 i! rf_data [31:0] $end
   $var wire  5 [ rf_waddr [4:0] $end
   $var wire 32 \ rf_wdata [31:0] $end
   $var wire  1 m! rf_wen $end
   $var wire  5 > rs [4:0] $end
   $var wire 32 ] rs_value [31:0] $end
   $var wire  5 ? rt [4:0] $end
   $var wire 32 ^ rt_value [31:0] $end
   $var wire  5 A sa [4:0] $end
   $var wire  1 F sa_zero $end
   $var wire 32 9 seq_pc [31:0] $end
   $var wire 32 ` sext_imm [31:0] $end
   $var wire 26 D target [25:0] $end
   $scope module alu_module $end
    $var wire 32 j add_sub_result [31:0] $end
    $var wire  1 v adder_cin $end
    $var wire  1 w adder_cout $end
    $var wire 32 c adder_operand1 [31:0] $end
    $var wire 32 u adder_operand2 [31:0] $end
    $var wire 32 j adder_result [31:0] $end
    $var wire  1 _ alu_add $end
    $var wire  1 J alu_and $end
    $var wire 12 e alu_control [11:0] $end
    $var wire  1 U alu_lui $end
    $var wire  1 K alu_nor $end
    $var wire  1 L alu_or $end
    $var wire 32 f alu_result [31:0] $end
    $var wire  1 N alu_sll $end
    $var wire  1 I alu_slt $end
    $var wire  1 p! alu_sltu $end
    $var wire  1 p! alu_sra $end
    $var wire 32 c alu_src1 [31:0] $end
    $var wire 32 d alu_src2 [31:0] $end
    $var wire  1 O alu_srl $end
    $var wire  1 H alu_sub $end
    $var wire  1 M alu_xor $end
    $var wire 32 m and_result [31:0] $end
    $var wire 32 t lui_result [31:0] $end
    $var wire 32 n nor_result [31:0] $end
    $var wire 32 o or_result [31:0] $end
    $var wire  5 x shf [4:0] $end
    $var wire  2 y shf_1_0 [1:0] $end
    $var wire  2 z shf_3_2 [1:0] $end
    $var wire 32 q sll_result [31:0] $end
    $var wire 32 { sll_step1 [31:0] $end
    $var wire 32 | sll_step2 [31:0] $end
    $var wire 32 k slt_result [31:0] $end
    $var wire 32 l sltu_result [31:0] $end
    $var wire 32 s sra_result [31:0] $end
    $var wire 32 !! sra_step1 [31:0] $end
    $var wire 32 "! sra_step2 [31:0] $end
    $var wire 32 r srl_result [31:0] $end
    $var wire 32 } srl_step1 [31:0] $end
    $var wire 32 ~ srl_step2 [31:0] $end
    $var wire 32 p xor_result [31:0] $end
    $scope module adder_module $end
     $var wire  1 v cin $end
     $var wire  1 w cout $end
     $var wire 32 c operand1 [31:0] $end
     $var wire 32 u operand2 [31:0] $end
     $var wire 32 j result [31:0] $end
    $upscope $end
   $upscope $end
   $scope module data_ram_module $end
    $var wire 32 $! DM[0] [31:0] $end
    $var wire 32 .! DM[10] [31:0] $end
    $var wire 32 /! DM[11] [31:0] $end
    $var wire 32 0! DM[12] [31:0] $end
    $var wire 32 1! DM[13] [31:0] $end
    $var wire 32 2! DM[14] [31:0] $end
    $var wire 32 3! DM[15] [31:0] $end
    $var wire 32 4! DM[16] [31:0] $end
    $var wire 32 5! DM[17] [31:0] $end
    $var wire 32 6! DM[18] [31:0] $end
    $var wire 32 7! DM[19] [31:0] $end
    $var wire 32 %! DM[1] [31:0] $end
    $var wire 32 8! DM[20] [31:0] $end
    $var wire 32 9! DM[21] [31:0] $end
    $var wire 32 :! DM[22] [31:0] $end
    $var wire 32 ;! DM[23] [31:0] $end
    $var wire 32 <! DM[24] [31:0] $end
    $var wire 32 =! DM[25] [31:0] $end
    $var wire 32 >! DM[26] [31:0] $end
    $var wire 32 ?! DM[27] [31:0] $end
    $var wire 32 @! DM[28] [31:0] $end
    $var wire 32 A! DM[29] [31:0] $end
    $var wire 32 &! DM[2] [31:0] $end
    $var wire 32 B! DM[30] [31:0] $end
    $var wire 32 C! DM[31] [31:0] $end
    $var wire 32 '! DM[3] [31:0] $end
    $var wire 32 (! DM[4] [31:0] $end
    $var wire 32 )! DM[5] [31:0] $end
    $var wire 32 *! DM[6] [31:0] $end
    $var wire 32 +! DM[7] [31:0] $end
    $var wire 32 ,! DM[8] [31:0] $end
    $var wire 32 -! DM[9] [31:0] $end
    $var wire  5 #! addr [4:0] $end
    $var wire  1 e! clk $end
    $var wire 32 g rdata [31:0] $end
    $var wire  5 o! test_addr [4:0] $end
    $var wire 32 j! test_data [31:0] $end
    $var wire 32 ^ wdata [31:0] $end
    $var wire  4 n! wen [3:0] $end
   $upscope $end
   $scope module inst_rom_module $end
    $var wire  5 D! addr [4:0] $end
    $var wire 32 < inst [31:0] $end
    $var wire 32 # inst_rom[0] [31:0] $end
    $var wire 32 - inst_rom[10] [31:0] $end
    $var wire 32 . inst_rom[11] [31:0] $end
    $var wire 32 / inst_rom[12] [31:0] $end
    $var wire 32 0 inst_rom[13] [31:0] $end
    $var wire 32 1 inst_rom[14] [31:0] $end
    $var wire 32 2 inst_rom[15] [31:0] $end
    $var wire 32 3 inst_rom[16] [31:0] $end
    $var wire 32 4 inst_rom[17] [31:0] $end
    $var wire 32 5 inst_rom[18] [31:0] $end
    $var wire 32 6 inst_rom[19] [31:0] $end
    $var wire 32 $ inst_rom[1] [31:0] $end
    $var wire 32 % inst_rom[2] [31:0] $end
    $var wire 32 & inst_rom[3] [31:0] $end
    $var wire 32 ' inst_rom[4] [31:0] $end
    $var wire 32 ( inst_rom[5] [31:0] $end
    $var wire 32 ) inst_rom[6] [31:0] $end
    $var wire 32 * inst_rom[7] [31:0] $end
    $var wire 32 + inst_rom[8] [31:0] $end
    $var wire 32 , inst_rom[9] [31:0] $end
   $upscope $end
   $scope module rf_module $end
    $var wire  1 e! clk $end
    $var wire  5 > raddr1 [4:0] $end
    $var wire  5 ? raddr2 [4:0] $end
    $var wire 32 ] rdata1 [31:0] $end
    $var wire 32 ^ rdata2 [31:0] $end
    $var wire 32 E! rf[0] [31:0] $end
    $var wire 32 O! rf[10] [31:0] $end
    $var wire 32 P! rf[11] [31:0] $end
    $var wire 32 Q! rf[12] [31:0] $end
    $var wire 32 R! rf[13] [31:0] $end
    $var wire 32 S! rf[14] [31:0] $end
    $var wire 32 T! rf[15] [31:0] $end
    $var wire 32 U! rf[16] [31:0] $end
    $var wire 32 V! rf[17] [31:0] $end
    $var wire 32 W! rf[18] [31:0] $end
    $var wire 32 X! rf[19] [31:0] $end
    $var wire 32 F! rf[1] [31:0] $end
    $var wire 32 Y! rf[20] [31:0] $end
    $var wire 32 Z! rf[21] [31:0] $end
    $var wire 32 [! rf[22] [31:0] $end
    $var wire 32 \! rf[23] [31:0] $end
    $var wire 32 ]! rf[24] [31:0] $end
    $var wire 32 ^! rf[25] [31:0] $end
    $var wire 32 _! rf[26] [31:0] $end
    $var wire 32 `! rf[27] [31:0] $end
    $var wire 32 a! rf[28] [31:0] $end
    $var wire 32 b! rf[29] [31:0] $end
    $var wire 32 G! rf[2] [31:0] $end
    $var wire 32 c! rf[30] [31:0] $end
    $var wire 32 d! rf[31] [31:0] $end
    $var wire 32 H! rf[3] [31:0] $end
    $var wire 32 I! rf[4] [31:0] $end
    $var wire 32 J! rf[5] [31:0] $end
    $var wire 32 K! rf[6] [31:0] $end
    $var wire 32 L! rf[7] [31:0] $end
    $var wire 32 M! rf[8] [31:0] $end
    $var wire 32 N! rf[9] [31:0] $end
    $var wire  5 g! test_addr [4:0] $end
    $var wire 32 i! test_data [31:0] $end
    $var wire  5 [ waddr [4:0] $end
    $var wire 32 \ wdata [31:0] $end
    $var wire  1 m! wen $end
   $upscope $end
  $upscope $end
 $upscope $end
$enddefinitions $end


#0
b00100100000000010000000000001010 #
b00000000000000010001000010000010 $
b00000000010000010001100000100001 %
b00000000000000110010000100000000 &
b00000000100000100010100000100011 '
b10101100001001010000000000010110 (
b00000000101000100011000000100111 )
b00000000110000110011100000100101 *
b00000000111001100100000000100110 +
b10101100000010000000000000011100 ,
b00000000110001110100100000101010 -
b00010001001000010000000000000010 .
b00100100000000010000000000000100 /
b10001100001010100000000000010110 0
b00010101010001010000000000000011 1
b00000000010000010101100000100100 2
b10101100000010110000000000011100 3
b10101100000001000000000000010000 4
b00111100000011000000000000001100 5
b00001000000000000000000000000000 6
b00000000000000000000000000000000 7
b00000000000000000000000000000100 8
b00000000000000000000000000000100 9
b00000000000000000000000000101000 :
0;
b00100100000000010000000000001010 <
b001001 =
b00000 >
b00001 ?
b00000 @
b00000 A
b001010 B
b0000000000001010 C
b00000000010000000000001010 D
0E
1F
0G
0H
0I
0J
0K
0L
0M
0N
0O
1P
0Q
0R
0S
0T
0U
0V
b00000000000001000000000000101000 W
1X
0Y
b00000000000000000000000000101000 Z
b00001 [
b00000000000000000000000000001010 \
b00000000000000000000000000000000 ]
b00000000000000000000000000000000 ^
1_
b00000000000000000000000000001010 `
0a
1b
b00000000000000000000000000000000 c
b00000000000000000000000000001010 d
b100000000000 e
b00000000000000000000000000001010 f
b00000000000000000000000000000000 g
1h
0i
b00000000000000000000000000001010 j
b00000000000000000000000000000000 k
b00000000000000000000000000000001 l
b00000000000000000000000000000000 m
b11111111111111111111111111110101 n
b00000000000000000000000000001010 o
b00000000000000000000000000001010 p
b00000000000000000000000000001010 q
b00000000000000000000000000001010 r
b00000000000000000000000000001010 s
b00000000000010100000000000000000 t
b00000000000000000000000000001010 u
0v
0w
b00000 x
b00 y
b00 z
b00000000000000000000000000001010 {
b00000000000000000000000000001010 |
b00000000000000000000000000001010 }
b00000000000000000000000000001010 ~
b00000000000000000000000000001010 !!
b00000000000000000000000000001010 "!
b00010 #!
b00000000000000000000000000000000 $!
b00000000000000000000000000000000 %!
b00000000000000000000000000000000 &!
b00000000000000000000000000000000 '!
b00000000000000000000000000000000 (!
b00000000000000000000000000000000 )!
b00000000000000000000000000000000 *!
b00000000000000000000000000000000 +!
b00000000000000000000000000000000 ,!
b00000000000000000000000000000000 -!
b00000000000000000000000000000000 .!
b00000000000000000000000000000000 /!
b00000000000000000000000000000000 0!
b00000000000000000000000000000000 1!
b00000000000000000000000000000000 2!
b00000000000000000000000000000000 3!
b00000000000000000000000000000000 4!
b00000000000000000000000000000000 5!
b00000000000000000000000000000000 6!
b00000000000000000000000000000000 7!
b00000000000000000000000000000000 8!
b00000000000000000000000000000000 9!
b00000000000000000000000000000000 :!
b00000000000000000000000000000000 ;!
b00000000000000000000000000000000 <!
b00000000000000000000000000000000 =!
b00000000000000000000000000000000 >!
b00000000000000000000000000000000 ?!
b00000000000000000000000000000000 @!
b00000000000000000000000000000000 A!
b00000000000000000000000000000000 B!
b00000000000000000000000000000000 C!
b00000 D!
b00000000000000000000000000000000 E!
b00000000000000000000000000000000 F!
b00000000000000000000000000000000 G!
b00000000000000000000000000000000 H!
b00000000000000000000000000000000 I!
b00000000000000000000000000000000 J!
b00000000000000000000000000000000 K!
b00000000000000000000000000000000 L!
b00000000000000000000000000000000 M!
b00000000000000000000000000000000 N!
b00000000000000000000000000000000 O!
b00000000000000000000000000000000 P!
b00000000000000000000000000000000 Q!
b00000000000000000000000000000000 R!
b00000000000000000000000000000000 S!
b00000000000000000000000000000000 T!
b00000000000000000000000000000000 U!
b00000000000000000000000000000000 V!
b00000000000000000000000000000000 W!
b00000000000000000000000000000000 X!
b00000000000000000000000000000000 Y!
b00000000000000000000000000000000 Z!
b00000000000000000000000000000000 [!
b00000000000000000000000000000000 \!
b00000000000000000000000000000000 ]!
b00000000000000000000000000000000 ^!
b00000000000000000000000000000000 _!
b00000000000000000000000000000000 `!
b00000000000000000000000000000000 a!
b00000000000000000000000000000000 b!
b00000000000000000000000000000000 c!
b00000000000000000000000000000000 d!
0e!
0f!
b00000 g!
b00000000000000000000000000000000 h!
b00000000000000000000000000000000 i!
b00000000000000000000000000000000 j!
b00000000000000000000000000000000 k!
b00100100000000010000000000001010 l!
0m!
b0000 n!
b00000 o!
0p!
#1
1f!
1m!
#2
b00000000000000000000000000000100 7
b00000000000000000000000000001000 8
b00000000000000000000000000001000 9
b00000000000000000100001000001100 :
b00000000000000010001000010000010 <
b000000 =
b00010 @
b00010 A
b000010 B
b0001000010000010 C
b00000000010001000010000010 D
1E
0F
1O
0P
b00000000000001000100001000001000 W
0X
1Y
b00000000000000000100001000001100 Z
b00010 [
b00000000000000000000000000000010 \
b00000000000000000000000000001010 ^
0_
b00000000000000000001000010000010 `
1a
0b
b00000000000000000000000000000010 c
b000000000100 e
b00000000000000000000000000000010 f
0h
1i
b11111111111111111111111111111000 j
b00000000000000000000000000000001 k
b00000000000000000000000000000010 m
b00000000000000000000000000001000 p
b00000000000000000000000000101000 q
b00000000000000000000000000000010 r
b00000000000000000000000000000010 s
b11111111111111111111111111110101 u
1v
b00010 x
b10 y
b00000000000000000000000000101000 {
b00000000000000000000000000101000 |
b00000000000000000000000000000010 }
b00000000000000000000000000000010 ~
b00000000000000000000000000000010 !!
b00000000000000000000000000000010 "!
b00000 #!
b00001 D!
b00000000000000000000000000001010 F!
1e!
b00000000000000000000000000000100 k!
b00000000000000010001000010000010 l!
#3
0e!
#4
b00000000000000000000000000001000 7
b00000000000000000000000000001100 8
b00000000000000000000000000001100 9
b00000000000000000110000010001100 :
b00000000010000010001100000100001 <
b00010 >
b00011 @
b00000 A
b100001 B
b0001100000100001 C
b00010000010001100000100001 D
1F
1G
0O
b00000001000001000110000010000100 W
b00000000000000000110000010001100 Z
b00011 [
b00000000000000000000000000001100 \
b00000000000000000000000000000010 ]
1_
b00000000000000000001100000100001 `
0a
b100000000000 e
b00000000000000000000000000001100 f
b00000000000000000000000000001100 j
b00000000000000000000000000000000 k
b00000000000000000000000000001010 u
0v
b00011 #!
b00010 D!
b00000000000000000000000000000010 G!
1e!
b00000000000000000000000000001000 k!
b00000000010000010001100000100001 l!
#5
0e!
#6
b00000000000000000000000000001100 7
b00000000000000000000000000010000 8
b00000000000000000000000000010000 9
b00000000000000001000010000001100 :
b00000000000000110010000100000000 <
b00000 >
b00011 ?
b00100 @
b00100 A
b000000 B
b0010000100000000 C
b00000000110010000100000000 D
0F
0G
1N
b00000000000011001000010000000000 W
b00000000000000001000010000001100 Z
b00100 [
b00000000000000000000000011000000 \
b00000000000000000000000000000000 ]
b00000000000000000000000000001100 ^
0_
b00000000000000000010000100000000 `
1a
b00000000000000000000000000000100 c
b00000000000000000000000000001100 d
b000000001000 e
b00000000000000000000000011000000 f
b11111111111111111111111111111000 j
b00000000000000000000000000000001 k
b00000000000000000000000000000100 m
b11111111111111111111111111110011 n
b00000000000000000000000000001100 o
b00000000000000000000000011000000 q
b00000000000000000000000000000000 r
b00000000000000000000000000000000 s
b00000000000011000000000000000000 t
b11111111111111111111111111110011 u
1v
b00100 x
b00 y
b01 z
b00000000000000000000000000001100 {
b00000000000000000000000011000000 |
b00000000000000000000000000001100 }
b00000000000000000000000000000000 ~
b00000000000000000000000000001100 !!
b00000000000000000000000000000000 "!
b10000 #!
b00011 D!
b00000000000000000000000000001100 H!
1e!
b00000000000000000000000000001100 k!
b00000000000000110010000100000000 l!
#7
0e!
#8
b00000000000000000000000000010000 7
b00000000000000000000000000010100 8
b00000000000000000000000000010100 9
b00000000000000001010000010011100 :
b00000000100000100010100000100011 <
b00100 >
b00010 ?
b00101 @
b00000 A
b100011 B
b0010100000100011 C
b00100000100010100000100011 D
1F
1H
0N
b00000010000010001010000010001100 W
b00000000000000001010000010011100 Z
b00101 [
b00000000000000000000000010111110 \
b00000000000000000000000011000000 ]
b00000000000000000000000000000010 ^
b00000000000000000010100000100011 `
0a
b00000000000000000000000011000000 c
b00000000000000000000000000000010 d
b010000000000 e
b00000000000000000000000010111110 f
b00000000000000000000000010111110 j
b00000000000000000000000000000000 k
b00000000000000000000000000000000 l
b00000000000000000000000000000000 m
b11111111111111111111111100111101 n
b00000000000000000000000011000010 o
b00000000000000000000000011000010 p
b00000000000000000000000000000010 q
b00000000000000000000000000000010 r
b00000000000000000000000000000010 s
b00000000000000100000000000000000 t
b11111111111111111111111111111101 u
1w
b00000 x
b00 z
b00000000000000000000000000000010 {
b00000000000000000000000000000010 |
b00000000000000000000000000000010 }
b00000000000000000000000000000010 ~
b00000000000000000000000000000010 !!
b00000000000000000000000000000010 "!
b01111 #!
b00100 D!
b00000000000000000000000011000000 I!
1e!
b00000000000000000000000000010000 k!
b00000000100000100010100000100011 l!
#9
0e!
#10
b00000000000000000000000000010100 7
b00000000000000000000000000011000 8
b00000000000000000000000000011000 9
b00000000000000000000000001101100 :
b10101100001001010000000000010110 <
b101011 =
b00001 >
b00101 ?
b00000 @
b010110 B
b0000000000010110 C
b00001001010000000000010110 D
0E
0H
1T
b00000000100101000000000001011000 W
b00000000000000000000000001101100 Z
b00000000000000000000000000100000 \
b00000000000000000000000000001010 ]
b00000000000000000000000010111110 ^
1_
b00000000000000000000000000010110 `
1b
b00000000000000000000000000001010 c
b00000000000000000000000000010110 d
b100000000000 e
b00000000000000000000000000100000 f
0i
b00000000000000000000000000100000 j
b00000000000000000000000000000001 l
b00000000000000000000000000000010 m
b11111111111111111111111111100001 n
b00000000000000000000000000011110 o
b00000000000000000000000000011100 p
b00000000000000000101100000000000 q
b00000000000000000000000000000000 r
b00000000000000000000000000000000 s
b00000000000101100000000000000000 t
b00000000000000000000000000010110 u
0v
0w
b01010 x
b10 y
b10 z
b00000000000000000000000001011000 {
b00000000000000000101100000000000 |
b00000000000000000000000000000101 }
b00000000000000000000000000000000 ~
b00000000000000000000000000000101 !!
b00000000000000000000000000000000 "!
b01000 #!
b00101 D!
b00000000000000000000000010111110 J!
1e!
b00000000000000000000000000010100 k!
b10101100001001010000000000010110 l!
0m!
b1111 n!
#11
0e!
#12
b00000000000000000000000000011000 7
b00000000000000000000000000011100 8
b00000000000000000000000000011100 9
b00000000000000001100000010110100 :
b00000000101000100011000000100111 <
b000000 =
b00101 >
b00010 ?
b00110 @
b100111 B
b0011000000100111 C
b00101000100011000000100111 D
1E
1K
0T
b00000010100010001100000010011100 W
b00000000000000001100000010110100 Z
b00110 [
b11111111111111111111111101000001 \
b00000000000000000000000010111110 ]
b00000000000000000000000000000010 ^
0_
b00000000000000000011000000100111 `
0b
b00000000000000000000000010111110 c
b00000000000000000000000000000010 d
b000001000000 e
b11111111111111111111111101000001 f
1i
b00000000000000000000000010111100 j
b00000000000000000000000000000000 l
b11111111111111111111111101000001 n
b00000000000000000000000010111110 o
b00000000000000000000000010111100 p
b10000000000000000000000000000000 q
b00000000000000100000000000000000 t
b11111111111111111111111111111101 u
1v
1w
b11110 x
b11 z
b00000000000000000000000000001000 {
b00000000000000001000000000000000 |
b00000000000000000000000000000000 }
b00000000000000000000000000000000 !!
b10000 #!
b00000000000000000000000010111110 ,!
b00110 D!
1e!
b00000000000000000000000000011000 k!
b00000000101000100011000000100111 l!
1m!
b0000 n!
#13
0e!
#14
b00000000000000000000000000011100 7
b00000000000000000000000000100000 8
b00000000000000000000000000100000 9
b00000000000000001110000010110000 :
b00000000110000110011100000100101 <
b00110 >
b00011 ?
b00111 @
b100101 B
b0011100000100101 C
b00110000110011100000100101 D
0K
1L
b00000011000011001110000010010100 W
b00000000000000001110000010110000 Z
b00111 [
b11111111111111111111111101001101 \
b11111111111111111111111101000001 ]
b00000000000000000000000000001100 ^
b00000000000000000011100000100101 `
b11111111111111111111111101000001 c
b00000000000000000000000000001100 d
b000000100000 e
b11111111111111111111111101001101 f
b11111111111111111111111100110101 j
b00000000000000000000000000000001 k
b00000000000000000000000000000000 m
b00000000000000000000000010110010 n
b11111111111111111111111101001101 o
b11111111111111111111111101001101 p
b00000000000000000000000000011000 q
b00000000000000000000000000000110 r
b00000000000000000000000000000110 s
b00000000000011000000000000000000 t
b11111111111111111111111111110011 u
b00001 x
b01 y
b00 z
b00000000000000000000000000011000 {
b00000000000000000000000000011000 |
b00000000000000000000000000000110 }
b00000000000000000000000000000110 ~
b00000000000000000000000000000110 !!
b00000000000000000000000000000110 "!
b10011 #!
b00111 D!
b11111111111111111111111101000001 K!
1e!
b00000000000000000000000000011100 k!
b00000000110000110011100000100101 l!
#15
0e!
#16
b00000000000000000000000000100000 7
b00000000000000000000000000100100 8
b00000000000000000000000000100100 9
b00000000000000010000000010111000 :
b00000000111001100100000000100110 <
b00111 >
b00110 ?
b01000 @
b100110 B
b0100000000100110 C
b00111001100100000000100110 D
0L
1M
b00000011100110010000000010011000 W
b00000000000000010000000010111000 Z
b01000 [
b00000000000000000000000000001100 \
b11111111111111111111111101001101 ]
b11111111111111111111111101000001 ^
b00000000000000000100000000100110 `
b11111111111111111111111101001101 c
b11111111111111111111111101000001 d
b000000010000 e
b00000000000000000000000000001100 f
b00000000000000000000000000001100 j
b00000000000000000000000000000000 k
b11111111111111111111111101000001 m
b00000000000000000000000000001100 p
b11111111111010000010000000000000 q
b00000000000001111111111111111111 r
b11111111111111111111111111111111 s
b11111111010000010000000000000000 t
b00000000000000000000000010111110 u
b01101 x
b11 z
b11111111111111111111111010000010 {
b11111111111010000010000000000000 |
b01111111111111111111111110100000 }
b00000000000001111111111111111111 ~
b11111111111111111111111110100000 !!
b11111111111111111111111111111111 "!
b00011 #!
b01000 D!
b11111111111111111111111101001101 L!
1e!
b00000000000000000000000000100000 k!
b00000000111001100100000000100110 l!
#17
0e!
#18
b00000000000000000000000000100100 7
b00000000000000000000000000101000 8
b00000000000000000000000000101000 9
b00000000000000000000000010010100 :
b10101100000010000000000000011100 <
b101011 =
b00000 >
b01000 ?
b00000 @
b011100 B
b0000000000011100 C
b00000010000000000000011100 D
0E
0M
1T
b00000000001000000000000001110000 W
b00000000000000000000000010010100 Z
b00000000000000000000000000011100 \
b00000000000000000000000000000000 ]
b00000000000000000000000000001100 ^
1_
b00000000000000000000000000011100 `
1b
b00000000000000000000000000000000 c
b00000000000000000000000000011100 d
b100000000000 e
b00000000000000000000000000011100 f
0i
b00000000000000000000000000011100 j
b00000000000000000000000000000001 l
b00000000000000000000000000000000 m
b11111111111111111111111111100011 n
b00000000000000000000000000011100 o
b00000000000000000000000000011100 p
b00000000000000000000000000011100 q
b00000000000000000000000000011100 r
b00000000000000000000000000011100 s
b00000000000111000000000000000000 t
b00000000000000000000000000011100 u
0v
0w
b00000 x
b00 y
b00 z
b00000000000000000000000000011100 {
b00000000000000000000000000011100 |
b00000000000000000000000000011100 }
b00000000000000000000000000011100 ~
b00000000000000000000000000011100 !!
b00000000000000000000000000011100 "!
b00111 #!
b01001 D!
b00000000000000000000000000001100 M!
1e!
b00000000000000000000000000100100 k!
b10101100000010000000000000011100 l!
0m!
b1111 n!
#19
0e!
#20
b00000000000000000000000000101000 7
b00000000000000000000000000101100 8
b00000000000000000000000000101100 9
b00000000000000010010000011010000 :
b00000000110001110100100000101010 <
b000000 =
b00110 >
b00111 ?
b01001 @
b101010 B
b0100100000101010 C
b00110001110100100000101010 D
1E
1I
0T
b00000011000111010010000010101000 W
b00000000000000010010000011010000 Z
b01001 [
b00000000000000000000000000000001 \
b11111111111111111111111101000001 ]
b11111111111111111111111101001101 ^
0_
b00000000000000000100100000101010 `
0b
b11111111111111111111111101000001 c
b11111111111111111111111101001101 d
b001000000000 e
b00000000000000000000000000000001 f
1i
b11111111111111111111111111110100 j
b00000000000000000000000000000001 k
b11111111111111111111111101000001 m
b00000000000000000000000010110010 n
b11111111111111111111111101001101 o
b00000000000000000000000000001100 p
b11111111111111111111111010011010 q
b01111111111111111111111110100110 r
b11111111111111111111111110100110 s
b11111111010011010000000000000000 t
b00000000000000000000000010110010 u
1v
b00001 x
b01 y
b11111111111111111111111010011010 {
b11111111111111111111111010011010 |
b01111111111111111111111110100110 }
b01111111111111111111111110100110 ~
b11111111111111111111111110100110 !!
b11111111111111111111111110100110 "!
b00000 #!
b00000000000000000000000000001100 +!
b01010 D!
1e!
b00000000000000000000000000101000 k!
b00000000110001110100100000101010 l!
1m!
b0000 n!
#21
0e!
#22
b00000000000000000000000000101100 7
b00000000000000000000000000110000 8
b00000000000000000000000000110000 9
b00000000000000000000000000110100 :
b00010001001000010000000000000010 <
b000100 =
b01001 >
b00001 ?
b00000 @
b000010 B
b0000000000000010 C
b01001000010000000000000010 D
0E
0I
1Q
b00000100100001000000000000001000 W
b00000000000000000000000000110100 Z
b00001 [
b00000000000000000000000000000000 \
b00000000000000000000000000000001 ]
b00000000000000000000000000001010 ^
b00000000000000000000000000000010 `
b00000000000000000000000000000001 c
b00000000000000000000000000001010 d
b000000000000 e
b00000000000000000000000000000000 f
0i
b11111111111111111111111111110111 j
b00000000000000000000000000000000 m
b11111111111111111111111111110100 n
b00000000000000000000000000001011 o
b00000000000000000000000000001011 p
b00000000000000000000000000010100 q
b00000000000000000000000000000101 r
b00000000000000000000000000000101 s
b00000000000010100000000000000000 t
b11111111111111111111111111110101 u
b00000000000000000000000000010100 {
b00000000000000000000000000010100 |
b00000000000000000000000000000101 }
b00000000000000000000000000000101 ~
b00000000000000000000000000000101 !!
b00000000000000000000000000000101 "!
b01011 D!
b00000000000000000000000000000001 N!
1e!
b00000000000000000000000000101100 k!
b00010001001000010000000000000010 l!
0m!
#23
0e!
#24
b00000000000000000000000000110000 7
b00000000000000000000000000110100 8
b00000000000000000000000000110100 9
b00000000000000000000000001000000 :
b00100100000000010000000000000100 <
b001001 =
b00000 >
b000100 B
b0000000000000100 C
b00000000010000000000000100 D
1P
0Q
b00000000000001000000000000010000 W
b00000000000000000000000001000000 Z
b00000000000000000000000000000100 \
b00000000000000000000000000000000 ]
1_
b00000000000000000000000000000100 `
1b
b00000000000000000000000000000000 c
b00000000000000000000000000000100 d
b100000000000 e
b00000000000000000000000000000100 f
1h
b00000000000000000000000000000100 j
b00000000000000000000000000000000 k
b11111111111111111111111111111011 n
b00000000000000000000000000000100 o
b00000000000000000000000000000100 p
b00000000000000000000000000000100 q
b00000000000000000000000000000100 r
b00000000000000000000000000000100 s
b00000000000001000000000000000000 t
b00000000000000000000000000000100 u
0v
b00000 x
b00 y
b00000000000000000000000000000100 {
b00000000000000000000000000000100 |
b00000000000000000000000000000100 }
b00000000000000000000000000000100 ~
b00000000000000000000000000000100 !!
b00000000000000000000000000000100 "!
b00001 #!
b01100 D!
1e!
b00000000000000000000000000110000 k!
b00100100000000010000000000000100 l!
1m!
#25
0e!
